Podatkovno progamiranje Tutorial 7/Vaje 7
…
Exploratory data analysis

In statistics, exploratory data analysis is an approach to analyzing
data sets to summarize their main characteristics, often using
statistical graphics and other data visualization methods

GGplot

The typical scatterplots, histograms, line charts, pie charts will
work as long as you are presenting aggregation of the data in a compact
form, for example:

mtcars %>% mutate(Brand=str_extract(rownames(.),"[^ ]*")) %>% group_by(Brand) %>% summarise(MPG=mean(mpg),HP=mean(hp)) %>% {print(.);.} %>% pivot_longer(2:3) %>% ggplot()+aes(y=Brand,weight=value)+geom_bar() +facet_wrap(vars(name),scales = "free_x")

## # A tibble: 22 × 3
##    Brand      MPG    HP
##    <chr>    <dbl> <dbl>
##  1 AMC       15.2   150
##  2 Cadillac  10.4   205
##  3 Camaro    13.3   245
##  4 Chrysler  14.7   230
##  5 Datsun    22.8    93
##  6 Dodge     15.5   150
##  7 Duster    14.3   245
##  8 Ferrari   19.7   175
##  9 Fiat      29.8    66
## 10 Ford      15.8   264
## # ℹ 12 more rows
…
